{
"resetCertificat":"Your certificate was reset",
"accountCreated":"Your account has been created, your temporary password has been sent to your mail address.",
"autoMail":"This mail was sent automatically",
"click2Register":"Click here to confirm your account registration",
"click2Reset":"Click here to reset your password",
"hello":"Hello",
"mail2fSubject":"[LemonLDAP::NG] Your login code",
"mailConfirmSubject": "[LemonLDAP::NG] Password reset confirmation",
"mailSubject": "[LemonLDAP::NG] Your new password",
"newPwdIs":"Your new password is",
"pwdChanged":"Your password was changed.",
"pwdIs":"Your password is",
"registerConfirmSubject": "[LemonLDAP::NG] Account register confirmation",
"registerDoneSubject": "[LemonLDAP::NG] Your new account",
"requestIssuedFromIP":"The request was issued from IP",
"yourLoginCodeIs":"Your login code is",
"yourLoginIs":"Your login is"
}
